{
  "name": ["Бабочка","Сова"],
  "tag": ["Сумка", "Для девочки", "Возраст: 3+", "3_й уровень сложности"],
  "smallImg": ["images/catalog-1.png","images/modal-1.png"],
  "mdImg": ["images/catalog-md-1.png","images/modal-md-1.png"],
  "bigImg": ["images/catalog-lg-1.png","images/modal-lg-1.png"],
  "articul": ["LMDA-UA11-TCPHB-BOX", "UA11-TCPHB-BOX"],
  "videoLink": ["#"],
  "videoName": [null],
  "discription": "Скрапбукинг является видом рукодельного искусства, при котором любой желающий изготавливает и оформляет открытку, рассказывающую истории в виде изображений, фотографий, записей, газетных вырезок и других вещей, которые имеют памятную ценность. Данный набор помогает формированию усидчивости, внимательности, старательности и аккуратности. Развивает",
  "property": ["Материал: картон, атлас, стеарин, полипропилен.", "Размер готовой открытки: 13х17 см"],
  "set": ["картонная основа", "декоративные элементы", "атласные ленты", "инструкция на русском языке"]
}
