<svg xmlns="http://www.w3.org/2000/svg" width="21.218" height="28.81" viewBox="0 0 21.218 28.81">
  <metadata><?xpacket begin="﻿" id="W5M0MpCehiHzreSzNTczkc9d"?>
<x:xmpmeta xmlns:x="adobe:ns:meta/" x:xmptk="Adobe XMP Core 5.6-c138 79.159824, 2016/09/14-01:09:01        ">
   <rdf:RDF xmlns:rdf="http://www.w3.org/1999/02/22-rdf-syntax-ns#">
      <rdf:Description rdf:about=""/>
   </rdf:RDF>
</x:xmpmeta>
                                                                                                    
                                                                                                    
                                                                                                    
                                                                                                    
                                                                                                    
                                                                                                    
                                                                                                    
                                                                                                    
                                                                                                    
                                                                                                    
                                                                                                    
                                                                                                    
                                                                                                    
                                                                                                    
                                                                                                    
                                                                                                    
                                                                                                    
                                                                                                    
                                                                                                    
                                                                                                    
                           
<?xpacket end="w"?></metadata>
<defs>
    <style>
      .cls-1 {
        fill: #fff;
        fill-rule: evenodd;
      }
    </style>
  </defs>
  <path class="cls-1" d="M575.685,1769.05v-0.97a6.143,6.143,0,0,0-12.285,0v0.97h-4.464v17.83a3.879,3.879,0,0,0,3.875,3.87h13.463a3.879,3.879,0,0,0,3.875-3.87v-17.83h-4.464Zm-10.771,4.52a1.3,1.3,0,1,1,1.3-1.3A1.3,1.3,0,0,1,564.914,1773.57Zm7.938-4.52h-6.619v-0.97a3.31,3.31,0,1,1,6.619,0v0.97Zm1.319,4.52a1.3,1.3,0,1,1,1.3-1.3A1.3,1.3,0,0,1,574.171,1773.57Z" transform="translate(-558.938 -1761.94)"/>
</svg>
