<svg xmlns="http://www.w3.org/2000/svg" width="26" height="34" viewBox="0 0 26 34">
  <metadata><?xpacket begin="﻿" id="W5M0MpCehiHzreSzNTczkc9d"?>
<x:xmpmeta xmlns:x="adobe:ns:meta/" x:xmptk="Adobe XMP Core 5.6-c138 79.159824, 2016/09/14-01:09:01        ">
   <rdf:RDF xmlns:rdf="http://www.w3.org/1999/02/22-rdf-syntax-ns#">
      <rdf:Description rdf:about=""/>
   </rdf:RDF>
</x:xmpmeta>
                                                                                                    
                                                                                                    
                                                                                                    
                                                                                                    
                                                                                                    
                                                                                                    
                                                                                                    
                                                                                                    
                                                                                                    
                                                                                                    
                                                                                                    
                                                                                                    
                                                                                                    
                                                                                                    
                                                                                                    
                                                                                                    
                                                                                                    
                                                                                                    
                                                                                                    
                                                                                                    
                           
<?xpacket end="w"?></metadata>
<defs>
    <style>
      .cls-1 {
        fill: #fff;
        fill-rule: evenodd;
      }
    </style>
  </defs>
  <path id="Forma_1" data-name="Forma 1" class="cls-1" d="M973,1780.53a4.022,4.022,0,0,0-4-4.05,3.937,3.937,0,0,0-2.4.82,8.9,8.9,0,0,0-1.619-1.3,7.309,7.309,0,0,0,2.151-5.2,7.46,7.46,0,0,0-.268-1.95,3.949,3.949,0,1,0-4.433-4.88,7.147,7.147,0,0,0-2.5-.46,6.909,6.909,0,0,0-2.369.42,3.913,3.913,0,1,0-4.556,4.9,7.39,7.39,0,0,0-.274,1.97,7.278,7.278,0,0,0,2.215,5.25,9.877,9.877,0,0,0-1.544,1.26,3.931,3.931,0,0,0-2.417-.83,4.047,4.047,0,0,0-.282,8.08,9.648,9.648,0,0,0,.148,1.25c-1.856,1.35-2.127,4.28-.584,6.63,1.574,2.4,4.433,3.27,6.386,1.95a3.6,3.6,0,0,0,1.131-1.23,9.071,9.071,0,0,0,2.224.28,9.659,9.659,0,0,0,2.234-.28,3.61,3.61,0,0,0,1.132,1.23c1.954,1.32,4.812.45,6.386-1.95,1.547-2.35,1.272-5.29-.593-6.64a9.85,9.85,0,0,0,.147-1.24A4.018,4.018,0,0,0,973,1780.53Zm-12.382,7.75-0.093-.01c-3.811-1.58-5.28-5.36-3.6-6.94s3.6,0.34,3.6.34h0.014s1.922-1.93,3.6-.34S964.431,1786.7,960.62,1788.28Z" transform="translate(-947 -1761)"/>
</svg>
